module github.com/pasdam/go-utils

replace github.com/pasdam/go-utils/pkg => ./pkg

go 1.20

require (
	github.com/stretchr/testify v1.8.4
	github.com/xeipuuv/gojsonschema v1.2.0
	sigs.k8s.io/yaml v1.3.0
)

require (
	github.com/davecgh/go-spew v1.1.1 // indirect
	github.com/pmezard/go-difflib v1.0.0 // indirect
	github.com/xeipuuv/gojsonpointer v0.0.0-20180127040702-4e3ac2762d5f // indirect
	github.com/xeipuuv/gojsonreference v0.0.0-20180127040603-bd5ef7bd5415 // indirect
	gopkg.in/yaml.v2 v2.4.0 // indirect
	gopkg.in/yaml.v3 v3.0.1 // indirect
)
